POS.Arb,Leaf.mass.g
1741,0.0099
1747,0.00619
1750,0.0121
1766,0.0258
1767,0.00456
1769,0.01933
1770,0.00534
1771,0.00544
1772,0.01834
1774,0.03003
1776,0.00402
1777,0.01265
1778,0.01125
1781,0.02196
1784,0.01545
1785,0.01996
1786,0.00551
1787,0.01062
1788,0.01182
1790,0.00456
1791,0.00777
1792,0.02608
1793,0.03091
1794,0.0129
1795,0.01693
1797,0.02847
1798,0.01165
1800,0.02353
1405,0.00799
1414,0.00498
1403,0.00375
1420,0.00325
1424,0.01452
1431,0.00909
1439,0.0119
1469,0.00742
1472,0.00917
1476,0.00907
1572,0.01976
1575,0.00605
1581,0.01233
1584,0.00943
1479,0.02608
1482,0.0152
1486,0.00677
1488,0.01378
1490,0.0135
1492,0.00932
1495,0.01519
1496,0.01253
1497,0.00457
1505,0.01776
1507,0.00989
1520,0.02288
1521,0.00505
1522,0.00937
1527,0.00837
1531,0.0118
1559,0.00362
1571,0.03078
1701,0.00814
1703,0.00583
1740,0.00821
1738,0.00915
1737,0.01291
1736,0.01772
1733,0.01321
1732,0.00619
1727,0.01294
1723,0.01615
1721,0.0194
1720,0.02328
1719,0.00778
1718,0.02286
1717,0.02319
1715,0.01984
1710,0.01101
1705,0.00909
1704,0.00404
1592,0.0049
1593,0.01047
1596,0.01328
1598,0.01797
1588,0.00756
1590,0.0082
1996,0.02471
1995,0.00637
1994,0.03367
1993,0.02532
1992,0.01768
1991,0.01125
1990,0.00686
1989,0.00983
1986,0.00358
1985,0.00345
1983,0.02168
1980,0.00539
1979,0.01314
1978,0.00559
1976,0.01298
1975,0.01134
1973,0.01296
1972,0.01039
1971,0.00925
1970,0.00932
1965,0.0142
1961,0.01503
1960,0.00563
1959,0.00543
1958,0.00874
1957,0.02081
1954,0.00899
1951,0.00884
1949,0.01014
1947,0.0209
1945,0.00382
1943,0.00568
1941,0.00644
1939,0.00983
1934,0.00388
1931,0.00829
1930,0.01503
1927,0.00937
1924,0.00876
1923,0.01173
1922,0.01714
1921,0.02011
1920,0.00804
1916,0.02077
1913,0.00756
1910,0.00949
1911,0.00949
1909,0.01968
1905,0.00939
1903,0.00603
1904,0.00925
1902,0.00793
1901,0.00635
1865,0.01258
1860,0.01947
1859,0.00508
1856,0.00361
1853,0.00591
1849,0.02456
1847,0.01739
1845,0.00328
1844,0.00939
1842,0.00494
1837,0.00344
1841,0.00529
1836,0.00579
1835,0.01003
1834,0.0135
1833,0.01772
1830,0.00397
1825,0.01406
1822,0.02195
1820,0.00874
1819,0.02084
1818,0.02078
1817,0.01971
1809,0.01198
1808,0.00826
1806,0.00435
1804,0.01234
1803,0.01618
1801,0.00631
1868,0.01583
1869,0.01426
1870,0.01176
1871,0.00847
1872,0.00506
1873,0.0229
1874,0.00654
1875,0.00861
1877,0.00928
1878,0.01058
1880,0.01646
1882,0.01481
1883,0.01272
1884,0.02413
1885,0.00985
1887,0.0111
1889,0.01136
1891,0.01483
1892,0.00504
1893,0.01933
1895,0.01873
1897,0.00986
1898,0.01199
1899,0.018
1900,0.02496
938,0.00519
931,0.00718
926,0.0117
924,0.00673
912,0.00566
908,0.00507
906,0.00483
902,0.00721
839,0.00645
838,0.01905
836,0.00524
833,0.01466
832,0.0049
827,0.00403
826,0.01388
824,0.013
813,0.00477
807,0.00709
805,0.0131
802,0.00344
800,0.00662
799,0.00319
797,0.02557
795,0.03524
792,0.02526
789,0.00796
788,0.00813
787,0.00718
786,0.01298
783,0.00954
782,0.00745
780,0.00575
777,0.00546
776,0.00668
773,0.00754
769,0.00475
768,0.00315
767,0.01575
759,0.00555
761,0.00343
763,0.00409
764,0.00531
765,0.00374
847,0.00385
859,0.00468
861,0.00637
862,0.01704
863,0.00799
865,0.00675
870,0.00664
875,0.00766
879,0.00631
883,0.00974
884,0.00509
892,0.00676
896,0.01965
898,0.01337
945,0.00765
968,0.01121
972,0.01335
984,0.00477
992,0.01366
997,0.0203
998,0.00978
757,0.00766
756,0.0206
753,0.00448
752,0.01267
750,0.00688
744,0.0082
734,0.01445
733,0.00581
724,0.00615
717,0.00737
711,0.00882
707,0.00714
706,0.00604
704,0.00772
703,0.00768
702,0.00817
701,0.0191
1276,0.04677
1277,0.00595
1285,0.00331
1287,0.01039
1290,0.03306
1292,0.01751
1298,0.02339
1300,0.01688
1374,0.00315
1378,0.01934
1379,0.02749
1381,0.00451
1385,0.01501
1386,0.02298
1394,0.00771
1396,0.0131
1399,0.01816
1234,0.00469
1240,0.00694
1241,0.0114
1263,0.01668
1265,0.01223
1275,0.00543
1303,0.00522
1309,0.01328
1312,0.01557
1316,0.00497
1317,0.02109
1321,0.01389
1324,0.00615
1331,0.00425
1362,0.00607
1364,0.00674
1059,0.00648
1060,0.0091
1062,0.00984
1068,0.00584
1071,0.00534
1081,0.02812
1086,0.00936
1089,0.01584
1091,0.01245
1092,0.02615
1101,0.00422
1105,0.01289
1106,0.0035
1107,0.01201
1110,0.01701
1114,0.00516
1117,0.01732
1120,0.02003
1122,0.00433
1126,0.00842
1127,0.00745
1207,0.01167
1211,0.00472
1213,0.00796
1216,0.01771
1221,0.00472
1131,0.00883
1132,0.00932
1005,0.0139
1002,0.00799
1006,0.00405
1008,0.01018
1014,0.01005
1015,0.01728
1016,0.01276
1020,0.01085
1034,0.00706
1039,0.01056
1051,0.00878
1139,0.0036
1168,0.0111
1177,0.01091
1183,0.01147
1184,0.01254
1185,0.01544
1186,0.01768
1198,0.01353
1199,0.00542
126,0.0053
125,0.00619
113,0.01213
102,0.00351
98,0.00445
96,0.01373
93,0.00659
92,0.01798
91,0.01647
90,0.00497
89,0.01037
88,0.01259
87,0.00509
86,0.00903
82,0.00306
128,0.00936
139,0.01411
141,0.00537
151,0.00535
163,0.00308
174,0.00691
177,0.01135
179,0.00623
180,0.00484
181,0.01687
184,0.00721
188,0.00882
299,0.00876
295,0.00704
294,0.01394
293,0.0092
292,0.00476
291,0.00807
289,0.01213
287,0.0248
279,0.01136
278,0.01774
258,0.00692
235,0.00432
229,0.00249
214,0.00623
207,0.0296
204,0.01645
202,0.0041
199,0.02279
197,0.02408
194,0.01142
193,0.00548
192,0.00734
191,0.00981
190,0.0097
189,0.02272
79,0.00362
78,0.01191
67,0.00641
66,0.01428
52,0.00282
45,0.01527
43,0.00535
30,0.01141
23,0.01928
19,0.018
7,0.01393
5,0.00717
4,0.01034
3,0.00617
656,0.00866
654,0.01002
652,0.01026
651,0.00735
650,0.00626
649,0.00319
646,0.00525
645,0.00962
642,0.00854
638,0.01195
636,0.01178
632,0.00461
631,0.00903
629,0.00305
626,0.00918
622,0.00831
620,0.00848
613,0.00595
612,0.00693
605,0.00592
603,0.00949
601,0.00658
598,0.0084
597,0.01059
595,0.00327
593,0.01476
592,0.0085
590,0.01932
589,0.00942
587,0.00898
586,0.01277
584,0.0123
583,0.00257
575,0.00933
570,0.00334
563,0.00805
458,0.00955
456,0.00374
446,0.00259
445,0.01262
430,0.01008
429,0.00742
428,0.01101
421,0.00612
420,0.00521
417,0.0086
416,0.00994
414,0.00896
407,0.00699
405,0.00678
403,0.00535
400,0.01326
398,0.02295
397,0.00277
391,0.00273
376,0.01671
359,0.0028
347,0.00211
346,0.0119
694,0.01358
693,0.01417
692,0.02185
690,0.01606
688,0.00563
687,0.00626
686,0.00918
685,0.00351
683,0.00724
682,0.00852
681,0.04257
680,0.00992
678,0.00831
677,0.01131
675,0.01261
673,0.01966
671,0.00774
670,0.00896
665,0.01004
662,0.00863
661,0.00851
660,0.01188
657,0.00852
562,0.00656
558,0.0109
557,0.01356
553,0.00982
552,0.00874
545,0.003
543,0.00586
527,0.00433
523,0.01163
519,0.00779
518,0.00521
511,0.003
508,0.00888
507,0.00538
505,0.01091
504,0.00642
498,0.01507
496,0.01279
493,0.00471
492,0.01069
491,0.00601
484,0.008
482,0.01869
480,0.01693
469,0.00651
468,0.0062
463,0.01309
460,0.00316
341,0.00602
339,0.00374
322,0.01216
315,0.01318
314,0.00684
307,0.00664
306,0.00722
305,0.01741
2398,0.02233
2399,0.01109
2402,0.00833
2403,0.01094
2404,0.01272
2409,0.01025
2418,0.00442
2420,0.00956
2429,0.00569
2434,0.00909
2441,0.01319
2442,0.00384
2444,0.01366
2447,0.0191
2448,0.00696
2449,0.00662
2301,0.00576
2306,0.00724
2302,0.00766
2312,0.02387
2314,0.00575
2315,0.01075
2317,0.00346
2319,0.00354
2326,0.0099
2327,0.00791
2332,0.03038
2333,0.00819
2335,0.01442
2336,0.00864
2337,0.00509
2338,0.01533
2339,0.00878
2342,0.01427
2343,0.00701
2344,0.00681
2345,0.01216
2401,0.00439
2451,0.00834
2454,0.00519
2459,0.0103
2465,0.00941
2466,0.01588
2468,0.00958
2470,0.03057
2473,0.0095
2352,0.01044
2355,0.00911
2358,0.00967
2361,0.00686
2362,0.02031
2364,0.00805
2365,0.00416
2366,0.01538
2367,0.004
2369,0.01133
2370,0.0033
2371,0.019
2376,0.01185
2378,0.00693
2379,0.00833
2380,0.00949
2383,0.0048
2385,0.00777
2387,0.01984
2389,0.01508
2393,0.01566
2395,0.00672
2396,0.01089
2347,0.01122
2348,0.02151
2349,0.01087
2350,0.01207
2058,0.00851
2191,0.01388
2192,0.01523
2193,0.00904
2194,0.00603
2196,0.01736
2197,0.00368
2150,0.00895
2152,0.00995
2157,0.02852
2176,0.00257
2178,0.01044
2179,0.01413
2180,0.00998
2183,0.01083
2184,0.01167
2185,0.01373
2186,0.01354
2187,0.00739
2056,0.00676
2055,0.01511
2054,0.01553
2053,0.01917
2040,0.0046
2038,0.00885
2035,0.01037
2033,0.00544
2032,0.01293
2031,0.00977
2028,0.00755
2027,0.01373
2023,0.00493
2022,0.00994
2018,0.0137
2014,0.01727
2013,0.00822
2012,0.00684
2011,0.00325
2007,0.02549
2149,0.02679
2147,0.02944
2146,0.00968
2145,0.00929
2142,0.00721
2140,0.00626
2135,0.0103
2131,0.00884
2130,0.00916
2122,0.00567
2121,0.02125
2118,0.01933
2116,0.01205
2115,0.00935
2114,0.01091
2113,0.0061
2112,0.01916
2109,0.02141
2106,0.00959
2102,0.00725
2098,0.0089
2094,0.01082
2093,0.00936
2091,0.00861
2090,0.00552
2088,0.00476
2087,0.01179
2086,0.00798
2083,0.01651
2080,0.02174
2076,0.01185
2079,0.02049
2074,0.00625
2071,0.01251
2068,0.01015
2066,0.00859
2065,0.01178
2063,0.00507
2062,0.02006
2060,0.01068
2059,0.01826
2267,0.00693
2269,0.02262
2270,0.00517
2271,0.00365
2272,0.00893
2273,0.0156
2274,0.00644
2275,0.0122
2276,0.01126
2277,0.01776
2278,0.0077
2279,0.0042
2280,0.00555
2281,0.01045
2284,0.01217
2288,0.00995
2291,0.02286
2292,0.01433
2293,0.02213
2294,0.01
2295,0.01738
2296,0.00853
2298,0.0337
2299,0.01993
2300,0.01392
2201,0.00387
2202,0.03238
2203,0.0191
2209,0.02358
2213,0.01979
2215,0.00481
2217,0.01486
2228,0.00791
2229,0.0132
2230,0.00849
2232,0.03861
2237,0.0094
2246,0.00371
2249,0.004
2250,0.02676
2251,0.00542
2253,0.02198
2254,0.00366
2255,0.01502
2257,0.01381
2260,0.00488
2261,0.01324
2262,0.00905
2263,0.01016