"pop","pH","OM","TN","P","K","Ca","Mg","Silt","Clay","ppt_fieldtime","tmin_fieldtime","tmean_fieldtime","tmax_fieldtime","vpdmin_fieldtime","vpdmax_fieldtime","perc_open_sky"
"4029",6,3.3,0.24,56,53,1316,237,11,11,553.729032258065,11.8369032258065,18.0786543778802,24.3212718894009,1.14363502304147,16.5644387096774,NA
"4033",7.6,7.5,0.42,74,77,5640,1264,35,25,574.441612903226,11.9183225806452,18.1041474654378,24.2896774193548,1.16647188940092,16.5645640552995,NA
"4049",6.8,19.5,0.99,29,120,6145,1637,36,30,500.860322580645,11.3126451612903,16.792331797235,22.2720737327189,1.1574801843318,13.4491170506912,12.81
"4050",6.9,19.9,1.15,17,108,7256,1646,30,24,508.61064516129,11.3547096774194,16.9825806451613,22.6098617511521,1.08817695852535,13.86946359447,14.53
"4057",7.1,5.9,0.35,97,79,3541,756,45,15,550.521935483871,11.7955576036866,17.8196866359447,23.8456958525346,1.10058986175115,15.4438488479263,NA
"4079",6.2,38.9,1.64,41,86,5794,1168,32,10,474.65,11.022801843318,16.6910783410138,22.3588940092166,1.12221566820277,13.7551299539171,18.1
"4081",7,17.9,0.79,27,72,5541,1390,40,24,487.637741935484,10.9458433179724,16.7599078341014,22.5733640552995,1.08775483870968,14.2194967741935,14.72
"4082",6.4,32.6,1.46,38,91,6364,1626,32,8,471.28935483871,10.9282211981567,16.4528110599078,21.9766451612903,1.15152811059908,13.2920184331797,13.45
"4084",6.5,52.1,2.26,45,104,8291,2099,18,4,506.319677419355,11.0815668202765,16.8728847926267,22.665069124424,1.01358341013825,14.1365880184332,12.4
"ALB",6.7,5.4,0.32,44,120,1771,551,42,18,563.703870967742,11.610599078341,17.9775483870968,24.3452534562212,0.935402764976959,16.2995244239631,NA
"Arb",6.8,7.6,0.37,37,88,2479,741,63,33,610.57,10.4242132982225,16.4233903884134,22.4195150318192,0.962721088435374,15.0435012069344,NA
"FW",7.3,5.9,0.36,90,89,3482,633,48,26,568.386451612903,11.3254746543779,17.6553917050691,23.9843870967742,1.00857142857143,15.677000921659,31.73
"KR",7,10.5,0.61,24,106,2435,844,46,24,567.074838709677,11.2980092165899,17.5633179723502,23.8292165898618,0.991706912442396,15.3801105990783,70.08
