"poppair","Ca","Clay","K","Mg","OM","P","pH","ppt_fieldtime","Silt","tmax_fieldtime","tmean_fieldtime","tmin_fieldtime","TN","vpdmax_fieldtime","vpdmin_fieldtime","enviro30yrdist"
"4029,4033",3.74311558466458,2.75615212527964,1.40024678170868,3.42283214409385,0.073171375526832,0.480647336480109,12.0901610017889,0.277166880626171,4.62172512309284,0.00118847744403433,0.00174491208203764,0.0541295596523688,0.0797239636052477,1.03258793864052e-08,0.0907822729474255,5.3937730346501
"4029,4049",4.66848833788145,5.07638223074465,10.9126871581429,6.36063955994759,1.08861087263389,1.08145650708024,3.02254025044721,1.80580283909612,5.01489271168928,4.99961666118878,4.44251048607398,2.24424062810125,1.38409659036891,6.37844032343992,0.0333675308137548,7.64942956616047
"4029,4050",7.06374084467301,2.37647810802173,7.35372658796661,6.44268207459811,1.14303312019126,2.25637221847606,3.82540250447226,1.31516439037516,2.89660203027173,3.48720111086941,3.22558294926796,1.89854970336399,2.03763624263911,4.77329445952923,0.535374212484514,7.11553515606523
"4029,4057",0.991110091350076,0.22499201022691,1.64334518131088,0.874136853319918,0.0280407312109628,2.49372892784896,5.71449016100177,0.00664503142776194,9.27554555954048,0.269282865742078,0.180061147938798,0.0139584836674706,0.0297734555439346,0.82528145398176,0.322534896804149,4.7846553534101
"4029,4079",4.01448690802391,0.0140620006391819,2.64734157166798,2.81283382939782,5.25705637685294,0.33378287255563,0.18890876565295,4.04013243262361,3.53850829736796,4.58494439841611,5.16942521344673,5.41173055215394,4.82280767488548,5.18689734839729,0.0798621140527167,6.93561679709413
"4029,4081",3.57367697500939,2.37647810802173,0.877585222563946,4.3142303452808,0.884195601320835,1.24760620364127,4.72271914132378,2.82202834130434,6.74803963284909,3.63752386515012,4.66929532787987,6.48325326931582,0.744336388598392,3.6138730664702,0.543555245728587,6.87447428786072
"4029,4082",5.10153135114259,0.126558005752633,3.5103408902558,6.26107932471308,3.56104842267744,0.480647336480107,0.755635062611803,4.39081841379773,3.53850829736796,6.54509894915225,7.09718384799338,6.74222214217999,3.66238109352018,7.03796102668362,0.0108448081154811,7.66954098838021
"4029,4084",9.73980565847507,0.689038031319917,6.32298937365328,11.2513353175913,9.87830161760882,0.17950101146325,1.18067978533094,1.45211496132314,0.393167588596446,3.26584677023459,3.9035282286894,4.6586492655442,10.0402981819402,3.8739379241306,2.94414717844946,8.35304381015391
"4029,ALB",0.0414461945030703,0.689038031319911,10.9126871581429,0.319966131659483,0.0182928438817079,0.213621038435604,2.31413237924865,0.0642813032796344,7.71089903349343,0.000684737166995425,0.0274462145143902,0.418180913766302,0.0157479434281963,0.0461232036201692,7.54786369112712,5.50821303306141
"4029,FW",0.939244740963818,3.16395014381591,3.15055525884453,0.50890308838405,0.0280407312109628,1.71490222521916,7.98139534883719,0.138799511007177,10.9846209956842,0.135123724454714,0.481003918949604,2.13574379794026,0.0354328727134426,0.517588409627477,3.17544531639601,5.92374459983282
"4029,KR",0.250681359039514,2.37647810802173,6.82863404482586,1.19569963531792,0.2150342464462,1.51908293998651,4.72271914132378,0.115070116743135,9.82918971491096,0.288268123344243,0.713034136948943,2.3712966727104,0.336858352393783,0.921834128741432,4.01794793781371,5.97510072371739
"4033,4049",0.0510557456980788,0.351550015979548,4.49488940864473,0.451504806804056,0.597317351239446,3.00404585300068,3.02254025044722,3.49790256609792,0.00802382833870285,4.84663728685247,4.62034390115072,2.99544911284912,0.799454190597091,6.3789536095414,0.0140738247300417,5.92737224678619
"4033,4050",0.522810835948323,0.0140620006391816,2.33617562017716,0.473556105686629,0.637802193934563,4.81982467970331,2.31413237924865,2.79984112452785,0.200595708467571,3.35963462937081,3.37737263679776,2.59382716926336,1.31126235201351,4.77373848995765,1.06707592427211,5.53188140238097
"4033,4057",0.882036880511091,1.40620006391818,0.00972393598408795,0.837475554795058,0.0106189751331457,0.784760620364127,1.18067978533094,0.369643902185717,0.802382833870282,0.234692208931668,0.21725692023855,0.123063185860263,0.0120570191872137,0.825466091031097,0.755547799805308,2.90716455969502
"4033,4079",0.00474791908626861,3.16395014381591,0.196909703677784,0.0299079868288147,4.08979871963919,1.61550910316925,9.2565295169946,6.43370277541565,0.0722144550483256,4.43849679626347,5.36111951365237,6.54832875660922,3.66238109352019,5.18736021626673,0.340939005072378,7.09942925206387
"4033,4081",0.00196215023463142,0.0140620006391816,0.0607745999005509,0.0515211804355757,0.448651699375406,3.2770060687795,1.70017889087655,4.86800588720588,0.20059570846757,3.50721154311571,4.85156735517976,7.7221792580358,0.336858352393788,3.61425942595113,1.07861302184826,5.63324481470842
"4033,4082",0.104939502233256,4.06391818472353,0.476472863220317,0.425267168619272,2.61330489204419,1.92258934592043,6.80071556350624,6.87433018418911,0.0722144550483256,6.36989352114556,7.32149526110202,8.00457935527298,2.66140243936539,7.03850019612029,0.038873074644127,7.40192515546834
"4033,4084",1.4069586145386,6.20134228187921,1.77218733310006,2.26265148835941,8.25110959994069,1.24760620364127,5.71449016100177,2.99810519315392,2.31888638988511,3.14243371924344,4.07033450595197,5.71711070922443,8.33066207351648,3.87433794353516,4.06890502702987,7.83435519005881
"4033,ALB",2.99681081199724,0.68903803131991,4.49488940864473,1.64977141451582,0.0182928438817081,1.33513149022252,3.82540250447225,0.0744901474086727,0.393167588596437,0.00367742599339716,0.0430318247453445,0.773215433279389,0.0246061616065589,0.046166860830817,9.29419689567148,5.0657564926856
"4033,FW",0.932319457735937,0.0140620006391819,0.350061695427171,1.2921217386879,0.0106189751331457,0.379770734996631,0.425044722719137,0.0236877789188788,1.35602698924077,0.110967261680367,0.540690510319788,2.86989356703581,0.00885821817836124,0.517734632886978,4.34005093318112,3.62931249919061
"4033,KR",2.05644896070703,0.0140620006391816,2.04445754065452,0.572457560395282,0.0373323344524651,3.70869858395145,1.70017889087655,0.0350612685691309,0.970883228983035,0.252437677928273,0.78532497394426,3.14196581870518,0.0888282433996767,0.922029267210106,5.31663491955094,4.65261230600263
"4049,4050",0.247109809178699,0.506232023010547,0.350061695427175,0.000262863165487618,0.000663685945821589,0.213621038435604,0.0472271914132384,0.0388072141459356,0.288857820193302,0.135849259408001,0.097179071587889,0.0144481078800665,0.0629917737127903,0.116124449813381,0.836055158838654,1.71915419964487
"4049,4057",1.35751246866567,3.16395014381592,4.08648409731304,2.51881651096351,0.767220953369777,6.8596089008766,0.425044722719141,1.59336234733136,0.649930095434928,2.94828658881579,2.83380274133532,1.90421495306539,1.00786837940464,2.6150363428928,0.563384408595758,5.77014069625687
"4049,4079",0.0246647149328457,5.62480025567274,2.81021749940147,0.713822774615118,1.56115526605887,0.213621038435604,1.70017889087656,0.443831008691838,0.128381253419245,0.00897451779026305,0.0275263347841807,0.685971015698326,1.03961032787711,0.0615443495350623,0.216473076647977,3.90650384927971
"4049,4081",0.0730357922658185,0.506232023010547,5.60098712683476,0.19798788720043,0.0106189751331457,0.00593391773432225,0.188908765652953,0.112954973576138,0.128381253419245,0.108078462623723,0.00282267494594771,1.09860658948839,0.0984246464262348,0.390048304844617,0.846270851796848,3.06092996407189
"4049,4082",0.00960174343466538,6.806008309364,2.04445754065453,0.000392672136098793,0.711844657265287,0.120161834120027,0.755635062611804,0.56494215777791,0.128381253419245,0.103913932956571,0.309500450379428,1.20670214281611,0.543550109888881,0.0162200965139575,0.00616686776839609,3.65068196794885
"4049,4084",0.921979580650113,9.50591243208696,0.622331902981642,0.69267364807829,4.40836797363358,0.379770734996629,0.425044722719141,0.0192555334631777,2.59972038173971,0.183883901318026,0.0174217614779309,0.436011217248824,3.96872780552183,0.31061142958937,3.60437648572479,5.30057445106
"4049,ALB",3.83018212247102,2.02492809204219,0,3.82740451757345,0.82467126805496,0.33378287255563,0.0472271914132374,2.55149256604885,0.288857820193301,5.11732145387867,3.77158689659276,0.724898797153735,1.10457059451842,5.33977027151852,8.58493152440513,6.19448351264412
"4049,FW",1.41972490330116,0.224992010226911,2.33617562017717,3.27123798298986,0.767220953369777,5.52002697235335,1.18067978533095,2.94589062236442,1.1554312807732,3.490882941574,1.99991049629977,0.00134399661467773,0.976618554164314,3.26207398215867,3.85983287591007,5.69315755777128
"4049,KR",2.75555882506785,0.506232023010547,0.476472863220319,2.04075603399667,0.335991010072189,0.0370869858395146,0.188908765652953,2.83256137522359,0.802382833870276,2.88685990972518,1.59595946161751,0.00174912440909974,0.355312973598707,2.45058828572173,4.78362415114614,4.69574750409051
"4050,4057",2.76299121232022,1.13902205177373,2.04445754065452,2.5705421405278,0.813015283631467,9.49426837491572,0.188908765652951,1.1348408821315,1.80536137620814,1.81839883033553,1.88143654097696,1.58692639991009,1.57479434281975,1.62903619619193,0.0268209879073133,5.52003812721956
"4050,4079",0.427914115509786,2.75615212527964,1.17659625407466,0.741481821028094,1.49744141526,0.854484153742414,2.31413237924866,0.745117517250958,0.0320953133548112,0.0749902151997189,0.228145894741839,0.899526966090015,0.590793940173475,0.00859125821560653,0.20168528292437,3.54247775604788
"4050,4081",0.588830254448901,0,3.15055525884454,0.212679017449349,0.0165921486455401,0.148347943358058,0.0472271914132379,0.28417771322294,0.802382833870282,0.0015859872406395,0.133126053659668,1.36502919228951,0.318895854421001,0.0805243325971476,3.1016980064914e-05,2.67394554889229
"4050,4082",0.159291123792239,3.59987216363054,0.702554374850365,0.0012980897061117,0.669036913759794,0.654214430209036,1.18067978533095,0.899883336858328,0.0320953133548112,0.47739004972142,0.753533764691296,1.48523025931867,0.236465213039029,0.219144310926172,0.698613647859244,3.43064174420006
"4050,4084",0.214458155809924,5.62480025567276,0.0388957439363522,0.665949226253714,4.30085085041049,1.16304787592718,0.755635062611808,0.00339086779508951,1.1554312807732,0.00362879940775753,0.0323079267894956,0.609198571740812,3.03172517154408,0.0468960112118866,0.968569000225713,4.31448546180309
"4050,ALB",6.02303145522782,0.506232023010547,0.350061695427175,3.89110502467662,0.872124813181204,1.08145650708024,0.188908765652952,1.96096261014229,1.15543128077321,3.58561642072275,2.65794919752717,0.534667487178389,1.69511847307583,3.88099423570123,4.06282420371575,5.69618154495564
"4050,FW",2.85144933325912,0.0562480025567271,0.877585222563951,3.33014853907748,0.813015283631467,7.90546190155093,0.755635062611805,2.30846767382135,2.59972038173971,2.24943940379928,1.21538792835354,0.0069788853146017,1.53567054586533,2.14725319122619,1.10309904113407,5.45486575421481
"4050,KR",4.65303297637612,0,0.00972393598408795,2.08734122832476,0.366520563579982,0.0726904922454484,0.0472271914132379,2.20827337487976,2.05410005470791,1.7702271840319,0.90549938036472,0.0262513932503466,0.717515672447251,1.49980464877496,1.61999249749014,4.24714028422309
"4057,4079",1.0162118406633,0.351550015979547,0.11911821580508,0.550857347685583,4.5172124687483,4.6521915037087,3.82540250447227,3.71907755872881,1.35602698924078,2.63193388400013,3.41991372671537,4.87599984173082,4.09471135294743,1.87423236225228,0.0814090440135326,6.0898151578428
"4057,4081",0.800795932917615,1.13902205177373,0.119118215805079,1.30443736477464,0.597317351239446,7.26904922454484,0.0472271914132375,2.55479407801998,0.200595708467571,1.92738979592087,3.01549860040595,5.89555941193633,0.476375288702975,0.985193073763797,0.0286761825621045,5.13430126426646
"4057,4082",1.5954515628206,0.689038031319904,0.350061695427172,2.45631024638997,2.95709421197978,5.163991908294,2.31413237924865,4.05583717952988,1.35602698924078,4.15921100939561,5.01633626641444,6.14262965761719,3.03172517154409,3.04316002943348,0.451664599414024,6.54084634722981
"4057,4084",4.51698955911344,1.70150207734101,1.51936499751377,5.85324550084688,8.85373643874671,4.01132838840189,1.70017889087656,1.26229778717725,5.84937085891434,1.65956403876256,2.40683802491344,4.16259724074906,8.97657381568865,1.1231382142339,1.31774369102755,7.41042977999974
"4057,ALB",0.627203394559395,0.126558005752636,4.08648409731304,0.136380549748368,0.00103700929034627,4.16709372892785,0.755635062611805,0.112261611675655,0.0722144550483257,0.297125510531616,0.0669086868970422,0.279336629725136,0.00221455454459036,0.481201507712285,4.74985412472651,3.99518571897035
"4057,FW",0.000696892660621536,1.701502077341,0.243098399602203,0.0490969979094121,0,0.0726904922454472,0.188908765652952,0.206184220168713,0.0722144550483247,0.0229016557547416,0.0724731273950845,1.80438072177429,0.000246061616065562,0.0357262368237626,1.47393285463267,2.43804285414045
"4057,KR",0.244890603449607,1.13902205177373,1.77218733310006,0.0251310167103236,0.0877724663349072,7.90546190155091,0.0472271914132375,0.177019561815899,0.00802382833870225,0.000323328767027207,0.176464989076639,2.02138866505581,0.166337652460336,0.00266998586700119,2.06370579372238,3.97965153869489
"4079,4081",0.0128145367175311,2.75615212527964,0.476472863220318,0.159937632690029,1.8292843881708,0.290761968981793,3.02254025044723,0.108978345624485,0.513525013676981,0.0547648728633184,0.0127197277766198,0.0483607085471001,1.77779517607387,0.141719975952454,0.206718566750516,3.37824601720666
"4079,4082",0.065044649651233,0.0562480025567252,0.0607745999005505,0.680731222782065,0.164635594935371,0.0133513149022252,0.188908765652952,0.00729656117312243,0,0.173964712583163,0.152425452416536,0.0730438615938638,0.0797239636052505,0.140954802571117,0.149565712594042,1.41656952420918
"4079,4084",1.24824246222619,0.506232023010552,0.787638814711136,2.81283382939782,0.72275399499974,0.0237356709372893,0.42504472271914,0.647977892302735,1.57267035438575,0.111611404548452,0.0887456870164748,0.0281978711060433,0.945860852156107,0.0956317954106604,2.05421381354114,3.47439076507943
"4079,ALB",3.24012624984679,0.899968040907639,2.81021749940147,1.23542118032495,4.65513470436436,0.0133513149022252,1.18067978533095,5.12363888902961,0.802382833870282,4.69769129401677,4.443529133053,2.8212024887297,4.28737759832679,4.25478474699488,6.07493689363371,6.82205560316926
"4079,FW",1.07013243381139,3.59987216363055,0.021878855964198,0.928864315329592,4.5172124687483,3.56183412002698,5.71449016100178,5.67662137212042,2.05410005470792,3.14585750985646,2.49669243673845,0.7480420317645,4.03147351761858,2.42748838270819,2.24813758176146,6.49943823770861
"4079,KR",2.25882130409837,2.75615212527964,0.972393598408811,0.340670662471968,3.34564085288671,0.428725556304788,3.02254025044723,5.51887187978337,1.57267035438575,2.57391409191779,2.04267985381408,0.618442477112984,2.61046768483981,1.73542197607157,2.96488142839969,5.723835610517
"4081,4082",0.135600577111789,3.59987216363054,0.877585222563952,0.180746010679001,0.896349350203693,0.17950101146325,1.70017889087656,0.172672323951046,0.513525013676981,0.423943881719277,0.253209026599419,0.00253568604263368,1.10457059451842,0.565348521419948,0.707954634890544,3.36356847846852
"4081,4084",1.51400481067238,5.62480025567276,2.48932761192656,1.6313125788949,4.85171018544242,0.480647336480107,1.18067978533095,0.225484474973089,3.88353291593215,0.0100127985531524,0.0342695524145623,0.150414358742069,5.31714546156125,0.00451761797586939,0.957637885046112,5.32498804032632
"4081,ALB",2.84540812874118,0.506232023010547,5.60098712683476,2.28438151003973,0.648130806466413,0.428725556304787,0.425044722719141,3.73813981467918,0.0320953133548112,3.73802338651868,3.9807681317147,3.60830632261824,0.543550109888881,2.84345869397461,4.04040380316071,5.93832092851392
"4081,FW",0.848739785620375,0.0562480025567271,0.702554374850365,1.85967251999409,0.597317351239446,5.88792987188133,0.42504472271914,4.21254052512655,0.513525013676979,2.37048387241345,2.15300089568504,1.1768017028714,0.45496792810527,1.39613786594119,1.09143137426192,4.873027375969
"4081,KR",1.93136683817411,0,2.81021749940146,0.967453277068028,0.227146514957445,0.0133513149022254,0,4.07680215758754,0.288857820193299,1.87778595507872,1.73301886457865,1.01268360655035,0.0797239636052499,0.885287203149523,1.60584645201003,4.18444040072943
"4082,4084",0.743404690196267,0.224992010226918,0.410836295327722,0.726050779646687,1.57729113061667,0.0726904922454483,0.0472271914132375,0.792795511209105,1.57267035438575,0.564261932438205,0.473783275775915,0.192009158449709,1.57479434281975,0.468791342477932,3.31236412433743,3.57126905057106
"4082,ALB",4.22332748036438,1.40620006391817,2.04445754065453,3.7502622915635,3.06888381347911,0.0534052596089007,0.425044722719141,5.51763918477376,0.802382833870282,6.67967427616256,6.24192777897138,3.80214838053395,3.19781676238837,5.94458730708803,8.13091522206953,7.4356353405856
"4082,FW",1.6628375395807,4.5560882070949,0.00972393598408819,3.19995014155447,2.95709421197978,4.0113283884019,3.82540250447227,6.09095510652631,2.05410005470792,4.7993737727815,3.88290794295637,1.28858938483024,2.9773455543936,3.73834257536089,3.5574348140196,6.97219292150214
"4082,KR",3.09047991227063,3.59987216363054,0.546971399104956,1.98453252360071,2.02594282999207,0.290761968981794,1.70017889087656,5.92751012220809,1.57267035438575,4.08619151117938,3.31109168761661,1.11656716256042,1.77779517607386,2.86555029631235,4.44627986862201,6.19212369606872
"4084,ALB",8.51053885667526,2.75615212527966,0.622331902981642,7.77654388778604,9.04641276489305,0.0014834794335806,0.188908765652953,2.12744075472017,4.62172512309281,3.36110944701314,3.27633844319283,2.28530141765893,9.2607749822444,3.0746537048201,1.06396301446829,7.61404482978087
"4084,FW",4.62989798187415,6.80600830936403,0.546971399104957,6.97449320107077,8.85373643874671,3.00404585300068,3.02254025044723,2.48880721995189,7.22144550483252,2.07237216698827,1.64401221468467,0.485769988465639,8.88282433996766,1.55949146875636,0.00437267260265352,7.6286819969021
"4084,KR",6.86537087935442,5.62480025567276,0.00972393598408815,5.11130934842165,7.17842719000652,0.654214430209036,1.18067978533095,2.3847302771199,6.29068141754298,1.61355876753106,1.27988804434213,0.382528544195549,6.69902749738558,1.01628627245728,0.0833074078741221,6.80988502497862
"ALB,FW",0.586086727582724,0.899968040907638,2.33617562017717,0.021820887959739,0.00103700929034627,3.13904248145652,1.70017889087656,0.014165876157321,0.288857820193301,0.155046365486423,0.278652511702991,0.663816468252375,0.0039369858570494,0.254694878369499,0.931919237570124,3.35788621037697
"ALB,KR",0.0882669309099074,0.506232023010547,0.476472863220319,0.278599257949972,0.107890446567625,0.593391773432232,0.425044722719141,0.00734145434881906,0.128381253419243,0.317051821211864,0.460694091051684,0.797864160728594,0.206937819111159,0.555559741563777,0.551834444896335,2.34554104720877
"FW,KR",0.219459927206925,0.0562480025567271,0.702554374850367,0.144480629514504,0.0877724663349072,6.46203641267702,0.42504472271914,0.001111435515236,0.032095313354812,0.0286673237681084,0.0227614630866012,0.00615959605839311,0.153788510040992,0.0579296348249081,0.0495080477821833,2.90682263997837
